Scientific Article Classification Pipeline
…
Code

write_csv(
  results,
  here::here("field_classification", "classified_articles_pilot.csv")
)

Validation and Quality Checks

Code

results |> filter(confidence < .9)

# A tibble: 21 × 12
   doi                  abstract title source_display_name cluster_id confidence
   <chr>                <chr>    <chr> <chr>               <chr>           <dbl>
 1 10.1073/pnas.170625… "Econom… Expo… "Proceedings of th… psychology       0.85
 2 10.1073/pnas.150506… "The tr… Self… "Proceedings of th… psychology       0.86
 3 10.1002/(SICI)1099-… "This r… Less… ""                  psychology       0.85
 4 10.1163/15685370677… "Abstra… The … "Journal of Cognit… psychology       0.86
 5 10.4148/1944-9771.1… "In cou… The … "Journal of Financ… psychology       0.86
 6 10.1073/pnas.172266… "Vital … Soci… "Proceedings of th… psychology       0.86
 7 10.1073/pnas.151604… "Black … Raci… "Proceedings of th… psychology       0.86
 8 10.1073/pnas.170704… "Intert… Sear… "Proceedings of th… psychology       0.86
 9 10.1111/j.1468-0017… "Abstra… A Di… "Mind & Language"   psychology       0.85
10 10.1371/journal.pon… "Recent… Reas… "PLoS ONE"          psychology       0.85
# ℹ 11 more rows
# ℹ 6 more variables: secondary_cluster_id <chr>, secondary_confidence <dbl>,
#   reasoning <chr>, field_id <chr>, field_confidence <dbl>,
#   field_reasoning <chr>
…
