Classification Validation Run
…
multi <- results |> filter(!is.na(secondary_cluster_id))
cat(sprintf("%d articles assigned a secondary Subject Area\n", nrow(multi)))

41 articles assigned a secondary Subject Area

Code

if (nrow(multi) > 0) {
  multi |>
    select(doi, title, cluster_id, secondary_cluster_id, secondary_confidence) |>
    print(n = 20)
}

# A tibble: 41 × 5
   doi                title cluster_id secondary_cluster_id secondary_confidence
   <chr>              <chr> <chr>      <chr>                               <dbl>
 1 10.1126/science.1… Pove… psychology economics_business                   0.58
 2 10.4148/1944-9771… The … psychology economics_business                   0.6 
 3 10.1371/journal.p… Reas… psychology general_comparative…                 0.6 
 4 10.1073/pnas.1707… Sear… psychology economics_business                   0.38
 5 10.1073/pnas.1519… Ecol… psychology sociology_social_sc…                 0.48
 6 10.1073/pnas.1805… How … psychology sociology_social_sc…                 0.58
 7 10.1073/pnas.0908… Synt… psychology general_comparative…                 0.5 
 8 10.1126/science.1… Some… psychology economics_business                   0.4 
 9 10.1073/pnas.1216… Rati… psychology general_comparative…                 0.38
10 10.1073/pnas.1717… Trai… psychology health_sciences_gen…                 0.6 
11 10.1073/pnas.1610… Past… psychology political_science                    0.65
12 10.1073/pnas.2120… Rela… psychology sociology_social_sc…                 0.38
13 10.1093/geronb/gb… Are … psychology sociology_social_sc…                 0.4 
14 10.1126/science.1… Writ… psychology education                            0.4 
15 10.1073/pnas.1706… Expo… psychology political_science                    0.6 
16 10.1073/pnas.1722… Soci… psychology political_science                    0.6 
17 10.1163/156853706… The … psychology cultural_studies                     0.58
18 10.1073/pnas.1516… Raci… psychology health_sciences_gen…                 0.71
19 10.1126/science.1… Read… psychology general_comparative…                 0.6 
20 10.1111/j.1468-00… A Di… psychology philosophy                           0.6 
# ℹ 21 more rows
…
